{
    "key": "group_59ae5221a62c7",
    "title": "Summary",
    "fields": [
        {
            "key": "field_59ae522f3f066",
            "label": "Summary of Content",
            "name": "summary",
            "type": "textarea",
            "instructions": "This summary will show on any child pages where the parent is set to the \"Nested Child Landing Page\" template. It's important to be concise yet thorough in describing the content of this page.",
            "required": 0,
            "conditional_logic": 0,
            "wrapper": {
                "width": "",
                "class": "",
                "id": ""
            },
            "default_value": "",
            "placeholder": "",
            "maxlength": "",
            "rows": 4,
            "new_lines": ""
        }
    ],
    "location": [
        [
            {
                "param": "post_type",
                "operator": "==",
                "value": "page"
            },
            {
                "param": "page_type",
                "operator": "==",
                "value": "child"
            },
            {
                "param": "page_template",
                "operator": "!=",
                "value": "nested-landing-page.php"
            }
        ]
    ],
    "menu_order": 0,
    "position": "acf_after_title",
    "style": "default",
    "label_placement": "top",
    "instruction_placement": "label",
    "hide_on_screen": [
        "excerpt"
    ],
    "active": 1,
    "description": "",
    "modified": 1504596869
}