{
    "key": "group_599ec83b72b18",
    "title": "Job \/ Internship Info",
    "fields": [
        {
            "key": "field_599ec84e07477",
            "label": "Job Type",
            "name": "job_type",
            "type": "select",
            "instructions": "",
            "required": 1,
            "conditional_logic": 0,
            "wrapper": {
                "width": "",
                "class": "",
                "id": ""
            },
            "choices": {
                "Career Opportunity": "Career Opportunity",
                "Internship": "Internship"
            },
            "default_value": [],
            "allow_null": 0,
            "multiple": 0,
            "ui": 0,
            "ajax": 0,
            "return_format": "value",
            "placeholder": ""
        },
        {
            "key": "field_599ec8ca07478",
            "label": "Employer\/Organization",
            "name": "employer",
            "type": "text",
            "instructions": "The name of the company hiring for this position.",
            "required": 1,
            "conditional_logic": 0,
            "wrapper": {
                "width": "",
                "class": "",
                "id": ""
            },
            "default_value": "",
            "placeholder": "",
            "prepend": "",
            "append": "",
            "maxlength": ""
        },
        {
            "key": "field_599ec8f807479",
            "label": "Full Location",
            "name": "location",
            "type": "text",
            "instructions": "Where is this job located? \r\nFormat: CITY, STATE",
            "required": 1,
            "conditional_logic": 0,
            "wrapper": {
                "width": "",
                "class": "",
                "id": ""
            },
            "default_value": "",
            "placeholder": "Hamilton, Ontario",
            "prepend": "",
            "append": "",
            "maxlength": ""
        },
        {
            "key": "field_5a14a0b6f1265",
            "label": "City",
            "name": "city",
            "type": "text",
            "instructions": "",
            "required": 1,
            "conditional_logic": 0,
            "wrapper": {
                "width": "",
                "class": "",
                "id": ""
            },
            "default_value": "",
            "placeholder": "",
            "prepend": "",
            "append": "",
            "maxlength": ""
        }
    ],
    "location": [
        [
            {
                "param": "post_type",
                "operator": "==",
                "value": "job"
            }
        ]
    ],
    "menu_order": 0,
    "position": "acf_after_title",
    "style": "default",
    "label_placement": "top",
    "instruction_placement": "label",
    "hide_on_screen": "",
    "active": 1,
    "description": "",
    "modified": 1511339840
}